{
    "position": {
        "easyBalance":625000.06,
        "totalInvestments":3244299.6100,
        "totalBalance":3244366.2100,
        "hasIpo":false,
        "hasEquity":true,
        "investmentsQuantity":44.0,
        "availableWithdrawMoney":66.6,
        "isProjectedBalance":false,
        "isCached":false,
        "cacheUpdatedData":"2018-07-26T00:00:00"
    },
    "summaryPerformance": {
        "performance": [
            {
                "referenceDate": "2018-08-15T00:00:00",
                "networth": 239359.83,
                "rentability": 1.19626100
            },
            {
                "referenceDate": "2018-08-16T00:00:00",
                "networth": 240055.18,
                "rentability": 1.19973600
            }
        ],
        "totalRentability": -0.248832
    }
}
